Unit 02 Project
…
## [1] 363

penguins_dup %>% distinct %>% nrow

## [1] 333

#Q3 There are 8 columns in the data frame.

penguins_clean %>%
  select(species, island, sex, where(is.numeric))

## # A tibble: 333 × 8
##    species island    sex    bill_length_mm bill_depth_mm flipper_length_mm
##    <fct>   <fct>     <fct>           <dbl>         <dbl>             <int>
##  1 Adelie  Torgersen male             39.1          18.7               181
##  2 Adelie  Torgersen female           39.5          17.4               186
##  3 Adelie  Torgersen female           40.3          18                 195
##  4 Adelie  Torgersen female           36.7          19.3               193
##  5 Adelie  Torgersen male             39.3          20.6               190
##  6 Adelie  Torgersen female           38.9          17.8               181
##  7 Adelie  Torgersen male             39.2          19.6               195
##  8 Adelie  Torgersen female           41.1          17.6               182
##  9 Adelie  Torgersen male             38.6          21.2               191
## 10 Adelie  Torgersen male             34.6          21.1               198
## # ℹ 323 more rows
## # ℹ 2 more variables: body_mass_g <int>, year <int>

ncol(penguins_clean)

## [1] 8

#Q4

penguins_clean %>%
  select(starts_with("bill"))

## # A tibble: 333 × 2
##    bill_length_mm bill_depth_mm
##             <dbl>         <dbl>
##  1           39.1          18.7
##  2           39.5          17.4
##  3           40.3          18  
##  4           36.7          19.3
##  5           39.3          20.6
##  6           38.9          17.8
##  7           39.2          19.6
##  8           41.1          17.6
##  9           38.6          21.2
## 10           34.6          21.1
## # ℹ 323 more rows

penguins_clean %>%
  select(ends_with("_mm"))

## # A tibble: 333 × 3
##    bill_length_mm bill_depth_mm flipper_length_mm
##             <dbl>         <dbl>             <int>
##  1           39.1          18.7               181
##  2           39.5          17.4               186
##  3           40.3          18                 195
##  4           36.7          19.3               193
##  5           39.3          20.6               190
##  6           38.9          17.8               181
##  7           39.2          19.6               195
##  8           41.1          17.6               182
##  9           38.6          21.2               191
## 10           34.6          21.1               198
## # ℹ 323 more rows

penguins_clean %>%
  select(matches("bi.*|fli.*"))

## # A tibble: 333 × 3
##    bill_length_mm bill_depth_mm flipper_length_mm
##             <dbl>         <dbl>             <int>
##  1           39.1          18.7               181
##  2           39.5          17.4               186
##  3           40.3          18                 195
##  4           36.7          19.3               193
##  5           39.3          20.6               190
##  6           38.9          17.8               181
##  7           39.2          19.6               195
##  8           41.1          17.6               182
##  9           38.6          21.2               191
## 10           34.6          21.1               198
## # ℹ 323 more rows
…
#Q6

penguins_clean %>%
  mutate(bill_length = case_when(
    bill_length_mm < 40 ~ "short",
    bill_length_mm < 50 ~ "medium",
    bill_length_mm >= 50 ~ "long" 
  )) %>%
  select (bill_length_mm, bill_length)

## # A tibble: 333 × 2
##    bill_length_mm bill_length
##             <dbl> <chr>      
##  1           39.1 short      
##  2           39.5 short      
##  3           40.3 medium     
##  4           36.7 short      
##  5           39.3 short      
##  6           38.9 short      
##  7           39.2 short      
##  8           41.1 medium     
##  9           38.6 short      
## 10           34.6 short      
## # ℹ 323 more rows
…
penguins_instrumented <- penguins_clean %>% 
  drop_na(bill_length_mm) %>%
    mutate(instrument_id = case_when(
     year == 2007 ~ "caliper_A",
     year == 2008 ~ "caliper_B",
     year == 2009 ~ "caliper_C",
  ))
left_join(penguins_instrumented, instrument_meta, by = "instrument_id")

## # A tibble: 333 × 11
##    species island    bill_length_mm bill_depth_mm flipper_length_mm body_mass_g
##    <fct>   <fct>              <dbl>         <dbl>             <int>       <int>
##  1 Adelie  Torgersen           39.1          18.7               181        3750
##  2 Adelie  Torgersen           39.5          17.4               186        3800
##  3 Adelie  Torgersen           40.3          18                 195        3250
##  4 Adelie  Torgersen           36.7          19.3               193        3450
##  5 Adelie  Torgersen           39.3          20.6               190        3650
##  6 Adelie  Torgersen           38.9          17.8               181        3625
##  7 Adelie  Torgersen           39.2          19.6               195        4675
##  8 Adelie  Torgersen           41.1          17.6               182        3200
##  9 Adelie  Torgersen           38.6          21.2               191        3800
## 10 Adelie  Torgersen           34.6          21.1               198        4400
## # ℹ 323 more rows
## # ℹ 5 more variables: sex <fct>, year <int>, instrument_id <chr>,
## #   calibration_mm <dbl>, manufacturer <chr>
…
